\relax 
\providecommand\hyper@newdestlabel[2]{}
\providecommand\babel@aux[2]{}
\@nameuse{bbl@beforestart}
\providecommand\HyperFirstAtBeginDocument{\AtBeginDocument}
\HyperFirstAtBeginDocument{\ifx\hyper@anchor\@undefined
\global\let\oldcontentsline\contentsline
\gdef\contentsline#1#2#3#4{\oldcontentsline{#1}{#2}{#3}}
\global\let\oldnewlabel\newlabel
\gdef\newlabel#1#2{\newlabelxx{#1}#2}
\gdef\newlabelxx#1#2#3#4#5#6{\oldnewlabel{#1}{{#2}{#3}}}
\AtEndDocument{\ifx\hyper@anchor\@undefined
\let\contentsline\oldcontentsline
\let\newlabel\oldnewlabel
\fi}
\fi}
\global\let\hyper@last\relax 
\gdef\HyperFirstAtBeginDocument#1{#1}
\providecommand\HyField@AuxAddToFields[1]{}
\providecommand\HyField@AuxAddToCoFields[2]{}
\babel@aux{american}{}
\providecommand*\caption@xref[2]{\@setref\relax\@undefined{#1}}
\newlabel{tab:requirements}{{\caption@xref {tab:requirements}{ on input line 137}}{1}{TrackNTrace \emph {Lifetime Edition}}{table.caption.2}{}}
\@writefile{toc}{\contentsline {section}{\numberline {1}Installation}{3}{section.0.1}\protected@file@percent }
\newlabel{sec:install}{{1}{3}{Installation}{section.0.1}{}}
\@writefile{toc}{\contentsline {subsection}{\numberline {1.1}Windows}{3}{subsection.0.1.1}\protected@file@percent }
\@writefile{toc}{\contentsline {subsection}{\numberline {1.2}Linux (tested with Kubuntu 14.4)}{3}{subsection.0.1.2}\protected@file@percent }
\@writefile{toc}{\contentsline {section}{\numberline {2}Overview}{4}{section.0.2}\protected@file@percent }
\newlabel{sec:overview}{{2}{4}{Overview}{section.0.2}{}}
\@writefile{lof}{\contentsline {figure}{\numberline {1}{\ignorespaces Program flow and user interface of TrackNTrace. First, a list of movies or a previously saved settings file is loaded before the main GUI is initialized. There, plugins for candidate detection, position refinement, and particle tracking are chosen and their settings adjusted for each movie. At any time during parameter tuning, a preview for an arbitrary part of the current movie can be computed and visualized. The visualizer is able to display the output from all stages (here shown in tracking mode). Selecting a candidate, localization, or track showcases the respective plugin-specific output (e.g. fitted parameter values). After parameter adjustment for all movies, the actual processing starts, saving each movie's output data along with the chosen settings in a single file.\relax }}{4}{figure.caption.4}\protected@file@percent }
\newlabel{fig:flowdiagram}{{1}{4}{Program flow and user interface of TrackNTrace. First, a list of movies or a previously saved settings file is loaded before the main GUI is initialized. There, plugins for candidate detection, position refinement, and particle tracking are chosen and their settings adjusted for each movie. At any time during parameter tuning, a preview for an arbitrary part of the current movie can be computed and visualized. The visualizer is able to display the output from all stages (here shown in tracking mode). Selecting a candidate, localization, or track showcases the respective plugin-specific output (e.g. fitted parameter values). After parameter adjustment for all movies, the actual processing starts, saving each movie's output data along with the chosen settings in a single file.\relax }{figure.caption.4}{}}
\@writefile{toc}{\contentsline {subsection}{\numberline {2.1}Startup (Fig. \ref  {fig:flowdiagram}.1)}{4}{subsection.0.2.1}\protected@file@percent }
\@writefile{toc}{\contentsline {subsection}{\numberline {2.2}Main GUI (Fig. \ref  {fig:flowdiagram}.2)}{5}{subsection.0.2.2}\protected@file@percent }
\@writefile{toc}{\contentsline {subsection}{\numberline {2.3}Preview/Visualizer (Fig. \ref  {fig:flowdiagram}.3)}{6}{subsection.0.2.3}\protected@file@percent }
\@writefile{toc}{\contentsline {paragraph}{Player options}{7}{section*.5}\protected@file@percent }
\@writefile{toc}{\contentsline {paragraph}{Histogram}{7}{section*.6}\protected@file@percent }
\@writefile{toc}{\contentsline {paragraph}{Tracks (only affects \textsf  {Tracking} mode)}{8}{section*.7}\protected@file@percent }
\@writefile{toc}{\contentsline {paragraph}{Filter}{8}{section*.8}\protected@file@percent }
\@writefile{toc}{\contentsline {paragraph}{Reconstruct}{8}{section*.9}\protected@file@percent }
\@writefile{toc}{\contentsline {paragraph}{Drift}{9}{section*.10}\protected@file@percent }
\@writefile{toc}{\contentsline {subsection}{\numberline {2.4}Headless mode}{10}{subsection.0.2.4}\protected@file@percent }
\newlabel{sec:headless_mode}{{2.4}{10}{Headless mode}{subsection.0.2.4}{}}
\@writefile{toc}{\contentsline {section}{\numberline {3}TrackNTrace output}{11}{section.0.3}\protected@file@percent }
\newlabel{sec:datastructures}{{3}{11}{TrackNTrace output}{section.0.3}{}}
\newlabel{tab:datastruct}{{\caption@xref {tab:datastruct}{ on input line 332}}{11}{TrackNTrace output}{table.caption.11}{}}
\gdef \LT@i {\LT@entry 
    {3}{132.35547pt}\LT@entry 
    {3}{375.62967pt}}
\@writefile{toc}{\contentsline {section}{\numberline {4}How to write a TrackNTrace plugin}{12}{section.0.4}\protected@file@percent }
\newlabel{sec:howto_plugins}{{4}{12}{How to write a TrackNTrace plugin}{section.0.4}{}}
\@writefile{toc}{\contentsline {subsection}{\numberline {4.1}Plugin header}{12}{subsection.0.4.1}\protected@file@percent }
\@writefile{toc}{\contentsline {subsection}{\numberline {4.2}Plugin body}{14}{subsection.0.4.2}\protected@file@percent }
\@writefile{toc}{\contentsline {subsection}{\numberline {4.3}Optional pre- and post-processing functions}{15}{subsection.0.4.3}\protected@file@percent }
\@writefile{toc}{\contentsline {subsection}{\numberline {4.4}Global variables and parallelization}{16}{subsection.0.4.4}\protected@file@percent }
\gdef \LT@ii {\LT@entry 
    {3}{132.35547pt}\LT@entry 
    {3}{375.62967pt}}
\@writefile{toc}{\contentsline {subsection}{\numberline {4.5}File import plugins}{17}{subsection.0.4.5}\protected@file@percent }
\newlabel{sec:importPlugin_syntax}{{4.5}{17}{File import plugins}{subsection.0.4.5}{}}
\@writefile{toc}{\contentsline {section}{\numberline {5}Provided TrackNTrace plugins (selection)}{18}{section.0.5}\protected@file@percent }
\@writefile{toc}{\contentsline {subsection}{\numberline {5.1}File import plugins}{18}{subsection.0.5.1}\protected@file@percent }
\newlabel{sec:importPlugin}{{5.1}{18}{File import plugins}{subsection.0.5.1}{}}
\@writefile{toc}{\contentsline {paragraph}{TIFF (*.tif;*.tiff)}{18}{section*.13}\protected@file@percent }
\@writefile{toc}{\contentsline {paragraph}{PTU (PicoQuant Unified TTTR) single photon files (*.ptu)}{18}{section*.14}\protected@file@percent }
\@writefile{toc}{\contentsline {subsection}{\numberline {5.2}Candidate detection plugins}{18}{subsection.0.5.2}\protected@file@percent }
\@writefile{toc}{\contentsline {paragraph}{Cross correlation}{18}{section*.15}\protected@file@percent }
\@writefile{toc}{\contentsline {paragraph}{Wavelet filtering}{19}{section*.16}\protected@file@percent }
\@writefile{toc}{\contentsline {paragraph}{Import CSV}{20}{section*.17}\protected@file@percent }
\@writefile{toc}{\contentsline {subsection}{\numberline {5.3}Refinement plugins}{20}{subsection.0.5.3}\protected@file@percent }
\@writefile{toc}{\contentsline {paragraph}{TNT Fitter}{20}{section*.18}\protected@file@percent }
\@writefile{toc}{\contentsline {subsection}{\numberline {5.4}Tracking plugins}{20}{subsection.0.5.4}\protected@file@percent }
\@writefile{toc}{\contentsline {paragraph}{TNT NearestNeighbor}{20}{section*.19}\protected@file@percent }
\@writefile{toc}{\contentsline {subsection}{\numberline {5.5}Post-processing plugins}{21}{subsection.0.5.5}\protected@file@percent }
\@writefile{toc}{\contentsline {paragraph}{fitLT}{21}{section*.20}\protected@file@percent }
\@writefile{toc}{\contentsline {section}{\numberline {6}References}{23}{section.0.6}\protected@file@percent }
