\BOOKMARK [1][-]{section.0.1}{Installation}{}% 1
\BOOKMARK [2][-]{subsection.0.1.1}{Windows}{section.0.1}% 2
\BOOKMARK [2][-]{subsection.0.1.2}{Linux \(tested with Kubuntu 14.4\)}{section.0.1}% 3
\BOOKMARK [1][-]{section.0.2}{Overview}{}% 4
\BOOKMARK [2][-]{subsection.0.2.1}{Startup \(Fig. 1.1\)}{section.0.2}% 5
\BOOKMARK [2][-]{subsection.0.2.2}{Main GUI \(Fig. 1.2\)}{section.0.2}% 6
\BOOKMARK [2][-]{subsection.0.2.3}{Preview/Visualizer \(Fig. 1.3\)}{section.0.2}% 7
\BOOKMARK [2][-]{subsection.0.2.4}{Headless mode}{section.0.2}% 8
\BOOKMARK [1][-]{section.0.3}{TrackNTrace output}{}% 9
\BOOKMARK [1][-]{section.0.4}{How to write a TrackNTrace plugin}{}% 10
\BOOKMARK [2][-]{subsection.0.4.1}{Plugin header}{section.0.4}% 11
\BOOKMARK [2][-]{subsection.0.4.2}{Plugin body}{section.0.4}% 12
\BOOKMARK [2][-]{subsection.0.4.3}{Optional pre- and post-processing functions}{section.0.4}% 13
\BOOKMARK [2][-]{subsection.0.4.4}{Global variables and parallelization}{section.0.4}% 14
\BOOKMARK [2][-]{subsection.0.4.5}{File import plugins}{section.0.4}% 15
\BOOKMARK [1][-]{section.0.5}{Provided TrackNTrace plugins \(selection\)}{}% 16
\BOOKMARK [2][-]{subsection.0.5.1}{File import plugins}{section.0.5}% 17
\BOOKMARK [2][-]{subsection.0.5.2}{Candidate detection plugins}{section.0.5}% 18
\BOOKMARK [2][-]{subsection.0.5.3}{Refinement plugins}{section.0.5}% 19
\BOOKMARK [2][-]{subsection.0.5.4}{Tracking plugins}{section.0.5}% 20
\BOOKMARK [2][-]{subsection.0.5.5}{Post-processing plugins}{section.0.5}% 21
\BOOKMARK [1][-]{section.0.6}{References}{}% 22
